0.43085 0.23883 0.27570 0.05639 0.90016 0.55304 0.03791 0.76606 0.10839 0.12774 0.80906 0.83772
0.43085 0.23883 0.27570 0.05639 0.90016 0.55304 0.03791 0.76606 0.10839 0.12774 0.80906 0.83772
0.43085 0.23883 0.27570 0.05639 0.90016 0.55304 0.03791 0.76606 0.10839 0.12774 0.80906 0.83772
0.43085 0.23883 0.27570 0.05639 0.90016 0.55304 0.03791 0.76606 0.10839 0.12774 0.80906 0.83772
0.43085 0.23883 0.27570 0.05639 0.90016 0.55304 0.03791 0.76606 0.10839 0.12774 0.80906 0.83772
0.43085 0.23883 0.27570 0.05639 0.90016 0.55304 0.03791 0.76606 0.10839 0.12774 0.80906 0.83772
0.43085 0.23883 0.27570 0.05639 0.90016 0.55304 0.03791 0.76606 0.10839 0.12774 0.80906 0.83772
0.43085 0.23883 0.27570 0.05639 0.90016 0.55304 0.03791 0.76606 0.10839 0.12774 0.80906 0.83772
0.43085 0.23883 0.27570 0.05639 0.90016 0.55304 0.03791 0.76606 0.10839 0.12774 0.80906 0.83772
0.43085 0.23883 0.27570 0.05639 0.90016 0.55304 0.03791 0.76606 0.10839 0.12774 0.80906 0.83772
0.43085 0.23883 0.27570 0.05639 0.90016 0.55304 0.03791 0.76606 0.10839 0.12774 0.80906 0.83772
0.43085 0.23883 0.27570 0.05639 0.90016 0.55304 0.03791 0.76606 0.10839 0.12774 0.80906 0.83772
0.43085 0.23883 0.27570 0.05639 0.90016 0.55304 0.03791 0.76606 0.10839 0.12774 0.80906 0.83772
0.43085 0.23883 0.27570 0.05639 0.90016 0.55304 0.03791 0.76606 0.10839 0.12774 0.80906 0.83772
0.43085 0.23883 0.27570 0.05639 0.90016 0.55304 0.03791 0.76606 0.10839 0.12774 0.80906 0.83772
0.43085 0.23883 0.27570 0.05639 0.90016 0.55304 0.03791 0.76606 0.10839 0.12774 0.80906 0.83772
0.43085 0.23883 0.27570 0.05639 0.90016 0.55304 0.03791 0.76606 0.10839 0.12774 0.80906 0.83772
0.43085 0.23883 0.27570 0.05639 0.90016 0.55304 0.03791 0.76606 0.10839 0.12774 0.80906 0.83772
0.43085 0.23883 0.27570 0.05639 0.90016 0.55304 0.03791 0.76606 0.10839 0.12774 0.80906 0.83772
0.43085 0.23883 0.27570 0.05639 0.90016 0.55304 0.03791 0.76606 0.10839 0.12774 0.80906 0.83772
0.43085 0.23883 0.27570 0.05639 0.90016 0.55304 0.03791 0.76606 0.10839 0.12774 0.80906 0.83772
0.43085 0.23883 0.27570 0.05639 0.90016 0.55304 0.03791 0.76606 0.10839 0.12774 0.80906 0.83772
0.43085 0.23883 0.27570 0.05639 0.90016 0.55304 0.03791 0.76606 0.10839 0.12774 0.80906 0.83772
0.43085 0.23883 0.27570 0.05639 0.90016 0.55304 0.03791 0.76606 0.10839 0.12774 0.80906 0.83772
0.43085 0.23883 0.27570 0.05639 0.90016 0.55304 0.03791 0.76606 0.10839 0.12774 0.80906 0.83772
0.43085 0.23883 0.27570 0.05639 0.90016 0.55304 0.03791 0.76606 0.10839 0.12774 0.80906 0.83772
0.43085 0.23883 0.27570 0.05639 0.90016 0.55304 0.03791 0.76606 0.10839 0.12774 0.80906 0.83772
0.43085 0.23883 0.27570 0.05639 0.90016 0.55304 0.03791 0.76606 0.10839 0.12774 0.80906 0.83772
0.43085 0.23883 0.27570 0.05639 0.90016 0.55304 0.03791 0.76606 0.10839 0.12774 0.80906 0.83772
0.43085 0.23883 0.27570 0.05639 0.90016 0.55304 0.03791 0.76606 0.10839 0.12774 0.80906 0.83772
