0.78603 0.14896 0.57678 0.87283 0.33051 0.77199 0.89474 0.55651 0.41162 0.20765 0.81290 0.49684
0.78603 0.14896 0.57678 0.87283 0.33051 0.77199 0.89474 0.55651 0.41162 0.20765 0.81290 0.49684
0.78603 0.14896 0.57678 0.87283 0.33051 0.77199 0.89474 0.55651 0.41162 0.20765 0.81290 0.49684
0.78603 0.14896 0.57678 0.87283 0.33051 0.77199 0.89474 0.55651 0.41162 0.20765 0.81290 0.49684
0.78603 0.14896 0.57678 0.87283 0.33051 0.77199 0.89474 0.55651 0.41162 0.20765 0.81290 0.49684
0.78603 0.14896 0.57678 0.87283 0.33051 0.77199 0.89474 0.55651 0.41162 0.20765 0.81290 0.49684
0.78603 0.14896 0.57678 0.87283 0.33051 0.77199 0.89474 0.55651 0.41162 0.20765 0.81290 0.49684
0.78603 0.14896 0.57678 0.87283 0.33051 0.77199 0.89474 0.55651 0.41162 0.20765 0.81290 0.49684
0.78603 0.14896 0.57678 0.87283 0.33051 0.77199 0.89474 0.55651 0.41162 0.20765 0.81290 0.49684
0.78603 0.14896 0.57678 0.87283 0.33051 0.77199 0.89474 0.55651 0.41162 0.20765 0.81290 0.49684
0.78603 0.14896 0.57678 0.87283 0.33051 0.77199 0.89474 0.55651 0.41162 0.20765 0.81290 0.49684
0.78603 0.14896 0.57678 0.87283 0.33051 0.77199 0.89474 0.55651 0.41162 0.20765 0.81290 0.49684
0.78603 0.14896 0.57678 0.87283 0.33051 0.77199 0.89474 0.55651 0.41162 0.20765 0.81290 0.49684
0.78603 0.14896 0.57678 0.87283 0.33051 0.77199 0.89474 0.55651 0.41162 0.20765 0.81290 0.49684
0.78603 0.14896 0.57678 0.87283 0.33051 0.77199 0.89474 0.55651 0.41162 0.20765 0.81290 0.49684
0.78603 0.14896 0.57678 0.87283 0.33051 0.77199 0.89474 0.55651 0.41162 0.20765 0.81290 0.49684
0.78603 0.14896 0.57678 0.87283 0.33051 0.77199 0.89474 0.55651 0.41162 0.20765 0.81290 0.49684
0.78603 0.14896 0.57678 0.87283 0.33051 0.77199 0.89474 0.55651 0.41162 0.20765 0.81290 0.49684
0.78603 0.14896 0.57678 0.87283 0.33051 0.77199 0.89474 0.55651 0.41162 0.20765 0.81290 0.49684
0.78603 0.14896 0.57678 0.87283 0.33051 0.77199 0.89474 0.55651 0.41162 0.20765 0.81290 0.49684
0.78603 0.14896 0.57678 0.87283 0.33051 0.77199 0.89474 0.55651 0.41162 0.20765 0.81290 0.49684
0.78603 0.14896 0.57678 0.87283 0.33051 0.77199 0.89474 0.55651 0.41162 0.20765 0.81290 0.49684
0.78603 0.14896 0.57678 0.87283 0.33051 0.77199 0.89474 0.55651 0.41162 0.20765 0.81290 0.49684
0.78603 0.14896 0.57678 0.87283 0.33051 0.77199 0.89474 0.55651 0.41162 0.20765 0.81290 0.49684
0.78603 0.14896 0.57678 0.87283 0.33051 0.77199 0.89474 0.55651 0.41162 0.20765 0.81290 0.49684
0.78603 0.14896 0.57678 0.87283 0.33051 0.77199 0.89474 0.55651 0.41162 0.20765 0.81290 0.49684
0.78603 0.14896 0.57678 0.87283 0.33051 0.77199 0.89474 0.55651 0.41162 0.20765 0.81290 0.49684
0.78603 0.14896 0.57678 0.87283 0.33051 0.77199 0.89474 0.55651 0.41162 0.20765 0.81290 0.49684
0.78603 0.14896 0.57678 0.87283 0.33051 0.77199 0.89474 0.55651 0.41162 0.20765 0.81290 0.49684
0.78603 0.14896 0.57678 0.87283 0.33051 0.77199 0.89474 0.55651 0.41162 0.20765 0.81290 0.49684
