0.32838 0.32503 0.51197 0.87219 0.98335 0.75316 0.37153 0.68516 0.27651 0.09337 0.58121 0.95208
0.32838 0.32503 0.51197 0.87219 0.98335 0.75316 0.37153 0.68516 0.27651 0.09337 0.58121 0.95208
0.32838 0.32503 0.51197 0.87219 0.98335 0.75316 0.37153 0.68516 0.27651 0.09337 0.58121 0.95208
0.32838 0.32503 0.51197 0.87219 0.98335 0.75316 0.37153 0.68516 0.27651 0.09337 0.58121 0.95208
0.32838 0.32503 0.51197 0.87219 0.98335 0.75316 0.37153 0.68516 0.27651 0.09337 0.58121 0.95208
0.32838 0.32503 0.51197 0.87219 0.98335 0.75316 0.37153 0.68516 0.27651 0.09337 0.58121 0.95208
0.32838 0.32503 0.51197 0.87219 0.98335 0.75316 0.37153 0.68516 0.27651 0.09337 0.58121 0.95208
0.32838 0.32503 0.51197 0.87219 0.98335 0.75316 0.37153 0.68516 0.27651 0.09337 0.58121 0.95208
0.32838 0.32503 0.51197 0.87219 0.98335 0.75316 0.37153 0.68516 0.27651 0.09337 0.58121 0.95208
0.32838 0.32503 0.51197 0.87219 0.98335 0.75316 0.37153 0.68516 0.27651 0.09337 0.58121 0.95208
0.32838 0.32503 0.51197 0.87219 0.98335 0.75316 0.37153 0.68516 0.27651 0.09337 0.58121 0.95208
0.32838 0.32503 0.51197 0.87219 0.98335 0.75316 0.37153 0.68516 0.27651 0.09337 0.58121 0.95208
0.32838 0.32503 0.51197 0.87219 0.98335 0.75316 0.37153 0.68516 0.27651 0.09337 0.58121 0.95208
0.32838 0.32503 0.51197 0.87219 0.98335 0.75316 0.37153 0.68516 0.27651 0.09337 0.58121 0.95208
0.32838 0.32503 0.51197 0.87219 0.98335 0.75316 0.37153 0.68516 0.27651 0.09337 0.58121 0.95208
0.32838 0.32503 0.51197 0.87219 0.98335 0.75316 0.37153 0.68516 0.27651 0.09337 0.58121 0.95208
0.32838 0.32503 0.51197 0.87219 0.98335 0.75316 0.37153 0.68516 0.27651 0.09337 0.58121 0.95208
0.32838 0.32503 0.51197 0.87219 0.98335 0.75316 0.37153 0.68516 0.27651 0.09337 0.58121 0.95208
0.32838 0.32503 0.51197 0.87219 0.98335 0.75316 0.37153 0.68516 0.27651 0.09337 0.58121 0.95208
0.32838 0.32503 0.51197 0.87219 0.98335 0.75316 0.37153 0.68516 0.27651 0.09337 0.58121 0.95208
0.32838 0.32503 0.51197 0.87219 0.98335 0.75316 0.37153 0.68516 0.27651 0.09337 0.58121 0.95208
0.32838 0.32503 0.51197 0.87219 0.98335 0.75316 0.37153 0.68516 0.27651 0.09337 0.58121 0.95208
0.32838 0.32503 0.51197 0.87219 0.98335 0.75316 0.37153 0.68516 0.27651 0.09337 0.58121 0.95208
0.32838 0.32503 0.51197 0.87219 0.98335 0.75316 0.37153 0.68516 0.27651 0.09337 0.58121 0.95208
0.32838 0.32503 0.51197 0.87219 0.98335 0.75316 0.37153 0.68516 0.27651 0.09337 0.58121 0.95208
0.32838 0.32503 0.51197 0.87219 0.98335 0.75316 0.37153 0.68516 0.27651 0.09337 0.58121 0.95208
0.32838 0.32503 0.51197 0.87219 0.98335 0.75316 0.37153 0.68516 0.27651 0.09337 0.58121 0.95208
0.32838 0.32503 0.51197 0.87219 0.98335 0.75316 0.37153 0.68516 0.27651 0.09337 0.58121 0.95208
0.32838 0.32503 0.51197 0.87219 0.98335 0.75316 0.37153 0.68516 0.27651 0.09337 0.58121 0.95208
0.32838 0.32503 0.51197 0.87219 0.98335 0.75316 0.37153 0.68516 0.27651 0.09337 0.58121 0.95208
