0.32838 0.32503 0.51197 0.87219 0.98335 0.75316 0.37153 0.68516 0.27651 0.09337 0.58121 0.95208
0.32838 0.32503 0.51197 0.87219 0.98335 0.75316 0.37153 0.68516 0.27651 0.09337 0.58121 0.95208
0.32838 0.32503 0.51197 0.87219 0.98335 0.75316 0.37153 0.68516 0.27651 0.09337 0.58121 0.95208
0.32838 0.32503 0.51197 0.87219 0.98335 0.75316 0.37153 0.68516 0.27651 0.09337 0.58121 0.95208
0.32838 0.32503 0.51197 0.87219 0.98335 0.75316 0.37153 0.68516 0.27651 0.09337 0.58121 0.95208
0.32838 0.32503 0.51197 0.87219 0.98335 0.75316 0.37153 0.68516 0.27651 0.09337 0.58121 0.95208
0.32838 0.32503 0.51197 0.87219 0.98335 0.75316 0.37153 0.68516 0.27651 0.09337 0.58121 0.95208
0.32838 0.32503 0.51197 0.87219 0.98335 0.75316 0.37153 0.68516 0.27651 0.09337 0.58121 0.95208
0.32838 0.32503 0.51197 0.87219 0.98335 0.75316 0.37153 0.68516 0.27651 0.09337 0.58121 0.95208
0.32838 0.32503 0.51197 0.87219 0.98335 0.75316 0.37153 0.68516 0.27651 0.09337 0.58121 0.95208
0.32838 0.32503 0.51197 0.87219 0.98335 0.75316 0.37153 0.68516 0.27651 0.09337 0.58121 0.95208
0.32838 0.32503 0.51197 0.87219 0.98335 0.75316 0.37153 0.68516 0.27651 0.09337 0.58121 0.95208
0.32838 0.32503 0.51197 0.87219 0.98335 0.75316 0.37153 0.68516 0.27651 0.09337 0.58121 0.95208
0.32838 0.32503 0.51197 0.87219 0.98335 0.75316 0.37153 0.68516 0.27651 0.09337 0.58121 0.95208
0.32838 0.32503 0.51197 0.87219 0.98335 0.75316 0.37153 0.68516 0.27651 0.09337 0.58121 0.95208
0.32838 0.32503 0.51197 0.87219 0.98335 0.75316 0.37153 0.68516 0.27651 0.09337 0.58121 0.95208
0.32838 0.32503 0.51197 0.87219 0.98335 0.75316 0.37153 0.68516 0.27651 0.09337 0.58121 0.95208
0.32838 0.32503 0.51197 0.87219 0.98335 0.75316 0.37153 0.68516 0.27651 0.09337 0.58121 0.95208
0.32838 0.32503 0.51197 0.87219 0.98335 0.75316 0.37153 0.68516 0.27651 0.09337 0.58121 0.95208
0.32838 0.32503 0.51197 0.87219 0.98335 0.75316 0.37153 0.68516 0.27651 0.09337 0.58121 0.95208
0.32838 0.32503 0.51197 0.87219 0.98335 0.75316 0.37153 0.68516 0.27651 0.09337 0.58121 0.95208
0.32838 0.32503 0.51197 0.87219 0.98335 0.75316 0.37153 0.68516 0.27651 0.09337 0.58121 0.95208
0.32838 0.32503 0.51197 0.87219 0.98335 0.75316 0.37153 0.68516 0.27651 0.09337 0.58121 0.95208
0.32838 0.32503 0.51197 0.87219 0.98335 0.75316 0.37153 0.68516 0.27651 0.09337 0.58121 0.95208
0.18429 0.23376 0.80946 0.18927 0.91241 0.96770 0.72882 0.97452 0.07439 0.17342 0.08422 0.10481
0.18429 0.23376 0.80946 0.18927 0.91241 0.96770 0.72882 0.97452 0.07439 0.17342 0.08422 0.10481
0.18429 0.23376 0.80946 0.18927 0.91241 0.96770 0.72882 0.97452 0.07439 0.17342 0.08422 0.10481
0.18429 0.23376 0.80946 0.18927 0.91241 0.96770 0.72882 0.97452 0.07439 0.17342 0.08422 0.10481
0.18429 0.23376 0.80946 0.18927 0.91241 0.96770 0.72882 0.97452 0.07439 0.17342 0.08422 0.10481
0.18429 0.23376 0.80946 0.18927 0.91241 0.96770 0.72882 0.97452 0.07439 0.17342 0.08422 0.10481
