0.18429 0.23376 0.80946 0.18927 0.91241 0.96770 0.72882 0.97452 0.07439 0.17342 0.08422 0.10481
0.18429 0.23376 0.80946 0.18927 0.91241 0.96770 0.72882 0.97452 0.07439 0.17342 0.08422 0.10481
0.18429 0.23376 0.80946 0.18927 0.91241 0.96770 0.72882 0.97452 0.07439 0.17342 0.08422 0.10481
0.18429 0.23376 0.80946 0.18927 0.91241 0.96770 0.72882 0.97452 0.07439 0.17342 0.08422 0.10481
0.18429 0.23376 0.80946 0.18927 0.91241 0.96770 0.72882 0.97452 0.07439 0.17342 0.08422 0.10481
0.18429 0.23376 0.80946 0.18927 0.91241 0.96770 0.72882 0.97452 0.07439 0.17342 0.08422 0.10481
0.18429 0.23376 0.80946 0.18927 0.91241 0.96770 0.72882 0.97452 0.07439 0.17342 0.08422 0.10481
0.18429 0.23376 0.80946 0.18927 0.91241 0.96770 0.72882 0.97452 0.07439 0.17342 0.08422 0.10481
0.18429 0.23376 0.80946 0.18927 0.91241 0.96770 0.72882 0.97452 0.07439 0.17342 0.08422 0.10481
0.18429 0.23376 0.80946 0.18927 0.91241 0.96770 0.72882 0.97452 0.07439 0.17342 0.08422 0.10481
0.18429 0.23376 0.80946 0.18927 0.91241 0.96770 0.72882 0.97452 0.07439 0.17342 0.08422 0.10481
0.18429 0.23376 0.80946 0.18927 0.91241 0.96770 0.72882 0.97452 0.07439 0.17342 0.08422 0.10481
0.18429 0.23376 0.80946 0.18927 0.91241 0.96770 0.72882 0.97452 0.07439 0.17342 0.08422 0.10481
0.18429 0.23376 0.80946 0.18927 0.91241 0.96770 0.72882 0.97452 0.07439 0.17342 0.08422 0.10481
0.18429 0.23376 0.80946 0.18927 0.91241 0.96770 0.72882 0.97452 0.07439 0.17342 0.08422 0.10481
0.18429 0.23376 0.80946 0.18927 0.91241 0.96770 0.72882 0.97452 0.07439 0.17342 0.08422 0.10481
0.18429 0.23376 0.80946 0.18927 0.91241 0.96770 0.72882 0.97452 0.07439 0.17342 0.08422 0.10481
0.18429 0.23376 0.80946 0.18927 0.91241 0.96770 0.72882 0.97452 0.07439 0.17342 0.08422 0.10481
0.18429 0.23376 0.80946 0.18927 0.91241 0.96770 0.72882 0.97452 0.07439 0.17342 0.08422 0.10481
0.18429 0.23376 0.80946 0.18927 0.91241 0.96770 0.72882 0.97452 0.07439 0.17342 0.08422 0.10481
0.18429 0.23376 0.80946 0.18927 0.91241 0.96770 0.72882 0.97452 0.07439 0.17342 0.08422 0.10481
0.18429 0.23376 0.80946 0.18927 0.91241 0.96770 0.72882 0.97452 0.07439 0.17342 0.08422 0.10481
0.18429 0.23376 0.80946 0.18927 0.91241 0.96770 0.72882 0.97452 0.07439 0.17342 0.08422 0.10481
0.18429 0.23376 0.80946 0.18927 0.91241 0.96770 0.72882 0.97452 0.07439 0.17342 0.08422 0.10481
0.18429 0.23376 0.80946 0.18927 0.91241 0.96770 0.72882 0.97452 0.07439 0.17342 0.08422 0.10481
0.18429 0.23376 0.80946 0.18927 0.91241 0.96770 0.72882 0.97452 0.07439 0.17342 0.08422 0.10481
0.18429 0.23376 0.80946 0.18927 0.91241 0.96770 0.72882 0.97452 0.07439 0.17342 0.08422 0.10481
0.18429 0.23376 0.80946 0.18927 0.91241 0.96770 0.72882 0.97452 0.07439 0.17342 0.08422 0.10481
0.18429 0.23376 0.80946 0.18927 0.91241 0.96770 0.72882 0.97452 0.07439 0.17342 0.08422 0.10481
0.18429 0.23376 0.80946 0.18927 0.91241 0.96770 0.72882 0.97452 0.07439 0.17342 0.08422 0.10481
