0.96793 0.40771 0.70467 0.04957 0.54447 0.52662 0.50742 0.88461 0.96403 0.00487 0.06548 0.28169
0.96793 0.40771 0.70467 0.04957 0.54447 0.52662 0.50742 0.88461 0.96403 0.00487 0.06548 0.28169
0.96793 0.40771 0.70467 0.04957 0.54447 0.52662 0.50742 0.88461 0.96403 0.00487 0.06548 0.28169
0.96793 0.40771 0.70467 0.04957 0.54447 0.52662 0.50742 0.88461 0.96403 0.00487 0.06548 0.28169
0.96793 0.40771 0.70467 0.04957 0.54447 0.52662 0.50742 0.88461 0.96403 0.00487 0.06548 0.28169
0.96793 0.40771 0.70467 0.04957 0.54447 0.52662 0.50742 0.88461 0.96403 0.00487 0.06548 0.28169
0.96793 0.40771 0.70467 0.04957 0.54447 0.52662 0.50742 0.88461 0.96403 0.00487 0.06548 0.28169
0.96793 0.40771 0.70467 0.04957 0.54447 0.52662 0.50742 0.88461 0.96403 0.00487 0.06548 0.28169
0.96793 0.40771 0.70467 0.04957 0.54447 0.52662 0.50742 0.88461 0.96403 0.00487 0.06548 0.28169
0.96793 0.40771 0.70467 0.04957 0.54447 0.52662 0.50742 0.88461 0.96403 0.00487 0.06548 0.28169
0.96793 0.40771 0.70467 0.04957 0.54447 0.52662 0.50742 0.88461 0.96403 0.00487 0.06548 0.28169
0.96793 0.40771 0.70467 0.04957 0.54447 0.52662 0.50742 0.88461 0.96403 0.00487 0.06548 0.28169
0.96793 0.40771 0.70467 0.04957 0.54447 0.52662 0.50742 0.88461 0.96403 0.00487 0.06548 0.28169
0.96793 0.40771 0.70467 0.04957 0.54447 0.52662 0.50742 0.88461 0.96403 0.00487 0.06548 0.28169
0.96793 0.40771 0.70467 0.04957 0.54447 0.52662 0.50742 0.88461 0.96403 0.00487 0.06548 0.28169
0.96793 0.40771 0.70467 0.04957 0.54447 0.52662 0.50742 0.88461 0.96403 0.00487 0.06548 0.28169
0.96793 0.40771 0.70467 0.04957 0.54447 0.52662 0.50742 0.88461 0.96403 0.00487 0.06548 0.28169
0.96793 0.40771 0.70467 0.04957 0.54447 0.52662 0.50742 0.88461 0.96403 0.00487 0.06548 0.28169
0.96793 0.40771 0.70467 0.04957 0.54447 0.52662 0.50742 0.88461 0.96403 0.00487 0.06548 0.28169
0.96793 0.40771 0.70467 0.04957 0.54447 0.52662 0.50742 0.88461 0.96403 0.00487 0.06548 0.28169
0.96793 0.40771 0.70467 0.04957 0.54447 0.52662 0.50742 0.88461 0.96403 0.00487 0.06548 0.28169
0.96793 0.40771 0.70467 0.04957 0.54447 0.52662 0.50742 0.88461 0.96403 0.00487 0.06548 0.28169
0.96793 0.40771 0.70467 0.04957 0.54447 0.52662 0.50742 0.88461 0.96403 0.00487 0.06548 0.28169
0.96793 0.40771 0.70467 0.04957 0.54447 0.52662 0.50742 0.88461 0.96403 0.00487 0.06548 0.28169
0.96793 0.40771 0.70467 0.04957 0.54447 0.52662 0.50742 0.88461 0.96403 0.00487 0.06548 0.28169
0.96793 0.40771 0.70467 0.04957 0.54447 0.52662 0.50742 0.88461 0.96403 0.00487 0.06548 0.28169
0.96793 0.40771 0.70467 0.04957 0.54447 0.52662 0.50742 0.88461 0.96403 0.00487 0.06548 0.28169
0.96793 0.40771 0.70467 0.04957 0.54447 0.52662 0.50742 0.88461 0.96403 0.00487 0.06548 0.28169
0.96793 0.40771 0.70467 0.04957 0.54447 0.52662 0.50742 0.88461 0.96403 0.00487 0.06548 0.28169
0.96793 0.40771 0.70467 0.04957 0.54447 0.52662 0.50742 0.88461 0.96403 0.00487 0.06548 0.28169
