0.97810 0.80031 0.82650 0.79231 0.08384 0.07622 0.03716 0.95109 0.60692 0.10094 0.13324 0.92011
0.97810 0.80031 0.82650 0.79231 0.08384 0.07622 0.03716 0.95109 0.60692 0.10094 0.13324 0.92011
0.97810 0.80031 0.82650 0.79231 0.08384 0.07622 0.03716 0.95109 0.60692 0.10094 0.13324 0.92011
0.97810 0.80031 0.82650 0.79231 0.08384 0.07622 0.03716 0.95109 0.60692 0.10094 0.13324 0.92011
0.97810 0.80031 0.82650 0.79231 0.08384 0.07622 0.03716 0.95109 0.60692 0.10094 0.13324 0.92011
0.97810 0.80031 0.82650 0.79231 0.08384 0.07622 0.03716 0.95109 0.60692 0.10094 0.13324 0.92011
0.97810 0.80031 0.82650 0.79231 0.08384 0.07622 0.03716 0.95109 0.60692 0.10094 0.13324 0.92011
0.97810 0.80031 0.82650 0.79231 0.08384 0.07622 0.03716 0.95109 0.60692 0.10094 0.13324 0.92011
0.97810 0.80031 0.82650 0.79231 0.08384 0.07622 0.03716 0.95109 0.60692 0.10094 0.13324 0.92011
0.97810 0.80031 0.82650 0.79231 0.08384 0.07622 0.03716 0.95109 0.60692 0.10094 0.13324 0.92011
0.97810 0.80031 0.82650 0.79231 0.08384 0.07622 0.03716 0.95109 0.60692 0.10094 0.13324 0.92011
0.97810 0.80031 0.82650 0.79231 0.08384 0.07622 0.03716 0.95109 0.60692 0.10094 0.13324 0.92011
0.97810 0.80031 0.82650 0.79231 0.08384 0.07622 0.03716 0.95109 0.60692 0.10094 0.13324 0.92011
0.97810 0.80031 0.82650 0.79231 0.08384 0.07622 0.03716 0.95109 0.60692 0.10094 0.13324 0.92011
0.97810 0.80031 0.82650 0.79231 0.08384 0.07622 0.03716 0.95109 0.60692 0.10094 0.13324 0.92011
0.97810 0.80031 0.82650 0.79231 0.08384 0.07622 0.03716 0.95109 0.60692 0.10094 0.13324 0.92011
0.97810 0.80031 0.82650 0.79231 0.08384 0.07622 0.03716 0.95109 0.60692 0.10094 0.13324 0.92011
0.97810 0.80031 0.82650 0.79231 0.08384 0.07622 0.03716 0.95109 0.60692 0.10094 0.13324 0.92011
0.97810 0.80031 0.82650 0.79231 0.08384 0.07622 0.03716 0.95109 0.60692 0.10094 0.13324 0.92011
0.97810 0.80031 0.82650 0.79231 0.08384 0.07622 0.03716 0.95109 0.60692 0.10094 0.13324 0.92011
0.97810 0.80031 0.82650 0.79231 0.08384 0.07622 0.03716 0.95109 0.60692 0.10094 0.13324 0.92011
0.97810 0.80031 0.82650 0.79231 0.08384 0.07622 0.03716 0.95109 0.60692 0.10094 0.13324 0.92011
0.97810 0.80031 0.82650 0.79231 0.08384 0.07622 0.03716 0.95109 0.60692 0.10094 0.13324 0.92011
0.97810 0.80031 0.82650 0.79231 0.08384 0.07622 0.03716 0.95109 0.60692 0.10094 0.13324 0.92011
0.97810 0.80031 0.82650 0.79231 0.08384 0.07622 0.03716 0.95109 0.60692 0.10094 0.13324 0.92011
0.97810 0.80031 0.82650 0.79231 0.08384 0.07622 0.03716 0.95109 0.60692 0.10094 0.13324 0.92011
0.97810 0.80031 0.82650 0.79231 0.08384 0.07622 0.03716 0.95109 0.60692 0.10094 0.13324 0.92011
0.97810 0.80031 0.82650 0.79231 0.08384 0.07622 0.03716 0.95109 0.60692 0.10094 0.13324 0.92011
0.97810 0.80031 0.82650 0.79231 0.08384 0.07622 0.03716 0.95109 0.60692 0.10094 0.13324 0.92011
0.97810 0.80031 0.82650 0.79231 0.08384 0.07622 0.03716 0.95109 0.60692 0.10094 0.13324 0.92011
