0.11627 0.88494 0.01710 0.96771 0.64726 0.34758 0.67035 0.15317 0.79242 0.50887 0.12043 0.24791
0.11627 0.88494 0.01710 0.96771 0.64726 0.34758 0.67035 0.15317 0.79242 0.50887 0.12043 0.24791
0.11627 0.88494 0.01710 0.96771 0.64726 0.34758 0.67035 0.15317 0.79242 0.50887 0.12043 0.24791
0.11627 0.88494 0.01710 0.96771 0.64726 0.34758 0.67035 0.15317 0.79242 0.50887 0.12043 0.24791
0.11627 0.88494 0.01710 0.96771 0.64726 0.34758 0.67035 0.15317 0.79242 0.50887 0.12043 0.24791
0.11627 0.88494 0.01710 0.96771 0.64726 0.34758 0.67035 0.15317 0.79242 0.50887 0.12043 0.24791
0.11627 0.88494 0.01710 0.96771 0.64726 0.34758 0.67035 0.15317 0.79242 0.50887 0.12043 0.24791
0.11627 0.88494 0.01710 0.96771 0.64726 0.34758 0.67035 0.15317 0.79242 0.50887 0.12043 0.24791
0.11627 0.88494 0.01710 0.96771 0.64726 0.34758 0.67035 0.15317 0.79242 0.50887 0.12043 0.24791
0.11627 0.88494 0.01710 0.96771 0.64726 0.34758 0.67035 0.15317 0.79242 0.50887 0.12043 0.24791
0.11627 0.88494 0.01710 0.96771 0.64726 0.34758 0.67035 0.15317 0.79242 0.50887 0.12043 0.24791
0.11627 0.88494 0.01710 0.96771 0.64726 0.34758 0.67035 0.15317 0.79242 0.50887 0.12043 0.24791
0.11627 0.88494 0.01710 0.96771 0.64726 0.34758 0.67035 0.15317 0.79242 0.50887 0.12043 0.24791
0.11627 0.88494 0.01710 0.96771 0.64726 0.34758 0.67035 0.15317 0.79242 0.50887 0.12043 0.24791
0.11627 0.88494 0.01710 0.96771 0.64726 0.34758 0.67035 0.15317 0.79242 0.50887 0.12043 0.24791
0.11627 0.88494 0.01710 0.96771 0.64726 0.34758 0.67035 0.15317 0.79242 0.50887 0.12043 0.24791
0.11627 0.88494 0.01710 0.96771 0.64726 0.34758 0.67035 0.15317 0.79242 0.50887 0.12043 0.24791
0.11627 0.88494 0.01710 0.96771 0.64726 0.34758 0.67035 0.15317 0.79242 0.50887 0.12043 0.24791
0.11627 0.88494 0.01710 0.96771 0.64726 0.34758 0.67035 0.15317 0.79242 0.50887 0.12043 0.24791
0.11627 0.88494 0.01710 0.96771 0.64726 0.34758 0.67035 0.15317 0.79242 0.50887 0.12043 0.24791
0.11627 0.88494 0.01710 0.96771 0.64726 0.34758 0.67035 0.15317 0.79242 0.50887 0.12043 0.24791
0.11627 0.88494 0.01710 0.96771 0.64726 0.34758 0.67035 0.15317 0.79242 0.50887 0.12043 0.24791
0.11627 0.88494 0.01710 0.96771 0.64726 0.34758 0.67035 0.15317 0.79242 0.50887 0.12043 0.24791
0.11627 0.88494 0.01710 0.96771 0.64726 0.34758 0.67035 0.15317 0.79242 0.50887 0.12043 0.24791
0.11627 0.88494 0.01710 0.96771 0.64726 0.34758 0.67035 0.15317 0.79242 0.50887 0.12043 0.24791
0.11627 0.88494 0.01710 0.96771 0.64726 0.34758 0.67035 0.15317 0.79242 0.50887 0.12043 0.24791
0.11627 0.88494 0.01710 0.96771 0.64726 0.34758 0.67035 0.15317 0.79242 0.50887 0.12043 0.24791
0.11627 0.88494 0.01710 0.96771 0.64726 0.34758 0.67035 0.15317 0.79242 0.50887 0.12043 0.24791
0.11627 0.88494 0.01710 0.96771 0.64726 0.34758 0.67035 0.15317 0.79242 0.50887 0.12043 0.24791
0.11627 0.88494 0.01710 0.96771 0.64726 0.34758 0.67035 0.15317 0.79242 0.50887 0.12043 0.24791
