0.83628 0.71364 0.62700 0.61197 0.51831 0.29459 0.39738 0.24676 0.40964 0.68437 0.64359 0.57894
0.83628 0.71364 0.62700 0.61197 0.51831 0.29459 0.39738 0.24676 0.40964 0.68437 0.64359 0.57894
0.83628 0.71364 0.62700 0.61197 0.51831 0.29459 0.39738 0.24676 0.40964 0.68437 0.64359 0.57894
0.83628 0.71364 0.62700 0.61197 0.51831 0.29459 0.39738 0.24676 0.40964 0.68437 0.64359 0.57894
0.83628 0.71364 0.62700 0.61197 0.51831 0.29459 0.39738 0.24676 0.40964 0.68437 0.64359 0.57894
0.83628 0.71364 0.62700 0.61197 0.51831 0.29459 0.39738 0.24676 0.40964 0.68437 0.64359 0.57894
0.83628 0.71364 0.62700 0.61197 0.51831 0.29459 0.39738 0.24676 0.40964 0.68437 0.64359 0.57894
0.83628 0.71364 0.62700 0.61197 0.51831 0.29459 0.39738 0.24676 0.40964 0.68437 0.64359 0.57894
0.83628 0.71364 0.62700 0.61197 0.51831 0.29459 0.39738 0.24676 0.40964 0.68437 0.64359 0.57894
0.83628 0.71364 0.62700 0.61197 0.51831 0.29459 0.39738 0.24676 0.40964 0.68437 0.64359 0.57894
0.83628 0.71364 0.62700 0.61197 0.51831 0.29459 0.39738 0.24676 0.40964 0.68437 0.64359 0.57894
0.83628 0.71364 0.62700 0.61197 0.51831 0.29459 0.39738 0.24676 0.40964 0.68437 0.64359 0.57894
0.83628 0.71364 0.62700 0.61197 0.51831 0.29459 0.39738 0.24676 0.40964 0.68437 0.64359 0.57894
0.83628 0.71364 0.62700 0.61197 0.51831 0.29459 0.39738 0.24676 0.40964 0.68437 0.64359 0.57894
0.83628 0.71364 0.62700 0.61197 0.51831 0.29459 0.39738 0.24676 0.40964 0.68437 0.64359 0.57894
0.83628 0.71364 0.62700 0.61197 0.51831 0.29459 0.39738 0.24676 0.40964 0.68437 0.64359 0.57894
0.83628 0.71364 0.62700 0.61197 0.51831 0.29459 0.39738 0.24676 0.40964 0.68437 0.64359 0.57894
0.83628 0.71364 0.62700 0.61197 0.51831 0.29459 0.39738 0.24676 0.40964 0.68437 0.64359 0.57894
0.83628 0.71364 0.62700 0.61197 0.51831 0.29459 0.39738 0.24676 0.40964 0.68437 0.64359 0.57894
0.83628 0.71364 0.62700 0.61197 0.51831 0.29459 0.39738 0.24676 0.40964 0.68437 0.64359 0.57894
0.83628 0.71364 0.62700 0.61197 0.51831 0.29459 0.39738 0.24676 0.40964 0.68437 0.64359 0.57894
0.83628 0.71364 0.62700 0.61197 0.51831 0.29459 0.39738 0.24676 0.40964 0.68437 0.64359 0.57894
0.83628 0.71364 0.62700 0.61197 0.51831 0.29459 0.39738 0.24676 0.40964 0.68437 0.64359 0.57894
0.83628 0.71364 0.62700 0.61197 0.51831 0.29459 0.39738 0.24676 0.40964 0.68437 0.64359 0.57894
0.83628 0.71364 0.62700 0.61197 0.51831 0.29459 0.39738 0.24676 0.40964 0.68437 0.64359 0.57894
0.83628 0.71364 0.62700 0.61197 0.51831 0.29459 0.39738 0.24676 0.40964 0.68437 0.64359 0.57894
0.83628 0.71364 0.62700 0.61197 0.51831 0.29459 0.39738 0.24676 0.40964 0.68437 0.64359 0.57894
0.83628 0.71364 0.62700 0.61197 0.51831 0.29459 0.39738 0.24676 0.40964 0.68437 0.64359 0.57894
0.83628 0.71364 0.62700 0.61197 0.51831 0.29459 0.39738 0.24676 0.40964 0.68437 0.64359 0.57894
0.83628 0.71364 0.62700 0.61197 0.51831 0.29459 0.39738 0.24676 0.40964 0.68437 0.64359 0.57894
