0.69066 0.12384 0.92836 0.92749 0.94863 0.51394 0.75317 0.03706 0.21341 0.76312 0.64709 0.23875
0.69066 0.12384 0.92836 0.92749 0.94863 0.51394 0.75317 0.03706 0.21341 0.76312 0.64709 0.23875
0.69066 0.12384 0.92836 0.92749 0.94863 0.51394 0.75317 0.03706 0.21341 0.76312 0.64709 0.23875
0.69066 0.12384 0.92836 0.92749 0.94863 0.51394 0.75317 0.03706 0.21341 0.76312 0.64709 0.23875
0.69066 0.12384 0.92836 0.92749 0.94863 0.51394 0.75317 0.03706 0.21341 0.76312 0.64709 0.23875
0.69066 0.12384 0.92836 0.92749 0.94863 0.51394 0.75317 0.03706 0.21341 0.76312 0.64709 0.23875
0.69066 0.12384 0.92836 0.92749 0.94863 0.51394 0.75317 0.03706 0.21341 0.76312 0.64709 0.23875
0.69066 0.12384 0.92836 0.92749 0.94863 0.51394 0.75317 0.03706 0.21341 0.76312 0.64709 0.23875
0.69066 0.12384 0.92836 0.92749 0.94863 0.51394 0.75317 0.03706 0.21341 0.76312 0.64709 0.23875
0.69066 0.12384 0.92836 0.92749 0.94863 0.51394 0.75317 0.03706 0.21341 0.76312 0.64709 0.23875
0.69066 0.12384 0.92836 0.92749 0.94863 0.51394 0.75317 0.03706 0.21341 0.76312 0.64709 0.23875
0.69066 0.12384 0.92836 0.92749 0.94863 0.51394 0.75317 0.03706 0.21341 0.76312 0.64709 0.23875
0.69066 0.12384 0.92836 0.92749 0.94863 0.51394 0.75317 0.03706 0.21341 0.76312 0.64709 0.23875
0.69066 0.12384 0.92836 0.92749 0.94863 0.51394 0.75317 0.03706 0.21341 0.76312 0.64709 0.23875
0.69066 0.12384 0.92836 0.92749 0.94863 0.51394 0.75317 0.03706 0.21341 0.76312 0.64709 0.23875
0.69066 0.12384 0.92836 0.92749 0.94863 0.51394 0.75317 0.03706 0.21341 0.76312 0.64709 0.23875
0.69066 0.12384 0.92836 0.92749 0.94863 0.51394 0.75317 0.03706 0.21341 0.76312 0.64709 0.23875
0.69066 0.12384 0.92836 0.92749 0.94863 0.51394 0.75317 0.03706 0.21341 0.76312 0.64709 0.23875
0.69066 0.12384 0.92836 0.92749 0.94863 0.51394 0.75317 0.03706 0.21341 0.76312 0.64709 0.23875
0.69066 0.12384 0.92836 0.92749 0.94863 0.51394 0.75317 0.03706 0.21341 0.76312 0.64709 0.23875
0.69066 0.12384 0.92836 0.92749 0.94863 0.51394 0.75317 0.03706 0.21341 0.76312 0.64709 0.23875
0.69066 0.12384 0.92836 0.92749 0.94863 0.51394 0.75317 0.03706 0.21341 0.76312 0.64709 0.23875
0.69066 0.12384 0.92836 0.92749 0.94863 0.51394 0.75317 0.03706 0.21341 0.76312 0.64709 0.23875
0.69066 0.12384 0.92836 0.92749 0.94863 0.51394 0.75317 0.03706 0.21341 0.76312 0.64709 0.23875
0.69066 0.12384 0.92836 0.92749 0.94863 0.51394 0.75317 0.03706 0.21341 0.76312 0.64709 0.23875
0.69066 0.12384 0.92836 0.92749 0.94863 0.51394 0.75317 0.03706 0.21341 0.76312 0.64709 0.23875
0.69066 0.12384 0.92836 0.92749 0.94863 0.51394 0.75317 0.03706 0.21341 0.76312 0.64709 0.23875
0.69066 0.12384 0.92836 0.92749 0.94863 0.51394 0.75317 0.03706 0.21341 0.76312 0.64709 0.23875
0.69066 0.12384 0.92836 0.92749 0.94863 0.51394 0.75317 0.03706 0.21341 0.76312 0.64709 0.23875
0.69066 0.12384 0.92836 0.92749 0.94863 0.51394 0.75317 0.03706 0.21341 0.76312 0.64709 0.23875
