0.63773 0.17214 0.76206 0.45449 0.22836 0.94842 0.23130 0.28889 0.58026 0.70271 0.75920 0.52732
0.63773 0.17214 0.76206 0.45449 0.22836 0.94842 0.23130 0.28889 0.58026 0.70271 0.75920 0.52732
0.63773 0.17214 0.76206 0.45449 0.22836 0.94842 0.23130 0.28889 0.58026 0.70271 0.75920 0.52732
0.63773 0.17214 0.76206 0.45449 0.22836 0.94842 0.23130 0.28889 0.58026 0.70271 0.75920 0.52732
0.63773 0.17214 0.76206 0.45449 0.22836 0.94842 0.23130 0.28889 0.58026 0.70271 0.75920 0.52732
0.63773 0.17214 0.76206 0.45449 0.22836 0.94842 0.23130 0.28889 0.58026 0.70271 0.75920 0.52732
0.63773 0.17214 0.76206 0.45449 0.22836 0.94842 0.23130 0.28889 0.58026 0.70271 0.75920 0.52732
0.63773 0.17214 0.76206 0.45449 0.22836 0.94842 0.23130 0.28889 0.58026 0.70271 0.75920 0.52732
0.63773 0.17214 0.76206 0.45449 0.22836 0.94842 0.23130 0.28889 0.58026 0.70271 0.75920 0.52732
0.63773 0.17214 0.76206 0.45449 0.22836 0.94842 0.23130 0.28889 0.58026 0.70271 0.75920 0.52732
0.63773 0.17214 0.76206 0.45449 0.22836 0.94842 0.23130 0.28889 0.58026 0.70271 0.75920 0.52732
0.63773 0.17214 0.76206 0.45449 0.22836 0.94842 0.23130 0.28889 0.58026 0.70271 0.75920 0.52732
0.63773 0.17214 0.76206 0.45449 0.22836 0.94842 0.23130 0.28889 0.58026 0.70271 0.75920 0.52732
0.63773 0.17214 0.76206 0.45449 0.22836 0.94842 0.23130 0.28889 0.58026 0.70271 0.75920 0.52732
0.63773 0.17214 0.76206 0.45449 0.22836 0.94842 0.23130 0.28889 0.58026 0.70271 0.75920 0.52732
0.63773 0.17214 0.76206 0.45449 0.22836 0.94842 0.23130 0.28889 0.58026 0.70271 0.75920 0.52732
0.63773 0.17214 0.76206 0.45449 0.22836 0.94842 0.23130 0.28889 0.58026 0.70271 0.75920 0.52732
0.63773 0.17214 0.76206 0.45449 0.22836 0.94842 0.23130 0.28889 0.58026 0.70271 0.75920 0.52732
0.63773 0.17214 0.76206 0.45449 0.22836 0.94842 0.23130 0.28889 0.58026 0.70271 0.75920 0.52732
0.63773 0.17214 0.76206 0.45449 0.22836 0.94842 0.23130 0.28889 0.58026 0.70271 0.75920 0.52732
0.63773 0.17214 0.76206 0.45449 0.22836 0.94842 0.23130 0.28889 0.58026 0.70271 0.75920 0.52732
0.63773 0.17214 0.76206 0.45449 0.22836 0.94842 0.23130 0.28889 0.58026 0.70271 0.75920 0.52732
0.63773 0.17214 0.76206 0.45449 0.22836 0.94842 0.23130 0.28889 0.58026 0.70271 0.75920 0.52732
0.63773 0.17214 0.76206 0.45449 0.22836 0.94842 0.23130 0.28889 0.58026 0.70271 0.75920 0.52732
0.63773 0.17214 0.76206 0.45449 0.22836 0.94842 0.23130 0.28889 0.58026 0.70271 0.75920 0.52732
0.63773 0.17214 0.76206 0.45449 0.22836 0.94842 0.23130 0.28889 0.58026 0.70271 0.75920 0.52732
0.63773 0.17214 0.76206 0.45449 0.22836 0.94842 0.23130 0.28889 0.58026 0.70271 0.75920 0.52732
0.63773 0.17214 0.76206 0.45449 0.22836 0.94842 0.23130 0.28889 0.58026 0.70271 0.75920 0.52732
0.63773 0.17214 0.76206 0.45449 0.22836 0.94842 0.23130 0.28889 0.58026 0.70271 0.75920 0.52732
0.63773 0.17214 0.76206 0.45449 0.22836 0.94842 0.23130 0.28889 0.58026 0.70271 0.75920 0.52732
