0.99641 0.58469 0.06216 0.27477 0.66200 0.16618 0.09227 0.58371 0.38214 0.78700 0.76869 0.18501
0.99641 0.58469 0.06216 0.27477 0.66200 0.16618 0.09227 0.58371 0.38214 0.78700 0.76869 0.18501
0.99641 0.58469 0.06216 0.27477 0.66200 0.16618 0.09227 0.58371 0.38214 0.78700 0.76869 0.18501
0.99641 0.58469 0.06216 0.27477 0.66200 0.16618 0.09227 0.58371 0.38214 0.78700 0.76869 0.18501
0.99641 0.58469 0.06216 0.27477 0.66200 0.16618 0.09227 0.58371 0.38214 0.78700 0.76869 0.18501
0.99641 0.58469 0.06216 0.27477 0.66200 0.16618 0.09227 0.58371 0.38214 0.78700 0.76869 0.18501
0.99641 0.58469 0.06216 0.27477 0.66200 0.16618 0.09227 0.58371 0.38214 0.78700 0.76869 0.18501
0.99641 0.58469 0.06216 0.27477 0.66200 0.16618 0.09227 0.58371 0.38214 0.78700 0.76869 0.18501
0.99641 0.58469 0.06216 0.27477 0.66200 0.16618 0.09227 0.58371 0.38214 0.78700 0.76869 0.18501
0.99641 0.58469 0.06216 0.27477 0.66200 0.16618 0.09227 0.58371 0.38214 0.78700 0.76869 0.18501
0.99641 0.58469 0.06216 0.27477 0.66200 0.16618 0.09227 0.58371 0.38214 0.78700 0.76869 0.18501
0.99641 0.58469 0.06216 0.27477 0.66200 0.16618 0.09227 0.58371 0.38214 0.78700 0.76869 0.18501
0.99641 0.58469 0.06216 0.27477 0.66200 0.16618 0.09227 0.58371 0.38214 0.78700 0.76869 0.18501
0.99641 0.58469 0.06216 0.27477 0.66200 0.16618 0.09227 0.58371 0.38214 0.78700 0.76869 0.18501
0.99641 0.58469 0.06216 0.27477 0.66200 0.16618 0.09227 0.58371 0.38214 0.78700 0.76869 0.18501
0.99641 0.58469 0.06216 0.27477 0.66200 0.16618 0.09227 0.58371 0.38214 0.78700 0.76869 0.18501
0.99641 0.58469 0.06216 0.27477 0.66200 0.16618 0.09227 0.58371 0.38214 0.78700 0.76869 0.18501
0.99641 0.58469 0.06216 0.27477 0.66200 0.16618 0.09227 0.58371 0.38214 0.78700 0.76869 0.18501
0.99641 0.58469 0.06216 0.27477 0.66200 0.16618 0.09227 0.58371 0.38214 0.78700 0.76869 0.18501
0.99641 0.58469 0.06216 0.27477 0.66200 0.16618 0.09227 0.58371 0.38214 0.78700 0.76869 0.18501
0.99641 0.58469 0.06216 0.27477 0.66200 0.16618 0.09227 0.58371 0.38214 0.78700 0.76869 0.18501
0.99641 0.58469 0.06216 0.27477 0.66200 0.16618 0.09227 0.58371 0.38214 0.78700 0.76869 0.18501
0.99641 0.58469 0.06216 0.27477 0.66200 0.16618 0.09227 0.58371 0.38214 0.78700 0.76869 0.18501
0.99641 0.58469 0.06216 0.27477 0.66200 0.16618 0.09227 0.58371 0.38214 0.78700 0.76869 0.18501
0.99641 0.58469 0.06216 0.27477 0.66200 0.16618 0.09227 0.58371 0.38214 0.78700 0.76869 0.18501
0.99641 0.58469 0.06216 0.27477 0.66200 0.16618 0.09227 0.58371 0.38214 0.78700 0.76869 0.18501
0.99641 0.58469 0.06216 0.27477 0.66200 0.16618 0.09227 0.58371 0.38214 0.78700 0.76869 0.18501
0.99641 0.58469 0.06216 0.27477 0.66200 0.16618 0.09227 0.58371 0.38214 0.78700 0.76869 0.18501
0.99641 0.58469 0.06216 0.27477 0.66200 0.16618 0.09227 0.58371 0.38214 0.78700 0.76869 0.18501
0.99641 0.58469 0.06216 0.27477 0.66200 0.16618 0.09227 0.58371 0.38214 0.78700 0.76869 0.18501
