0.56502 0.03899 0.81067 0.02416 0.92156 0.07882 0.50888 0.76592 0.96872 0.95455 0.22674 0.95638
0.56502 0.03899 0.81067 0.02416 0.92156 0.07882 0.50888 0.76592 0.96872 0.95455 0.22674 0.95638
0.56502 0.03899 0.81067 0.02416 0.92156 0.07882 0.50888 0.76592 0.96872 0.95455 0.22674 0.95638
0.56502 0.03899 0.81067 0.02416 0.92156 0.07882 0.50888 0.76592 0.96872 0.95455 0.22674 0.95638
0.56502 0.03899 0.81067 0.02416 0.92156 0.07882 0.50888 0.76592 0.96872 0.95455 0.22674 0.95638
0.56502 0.03899 0.81067 0.02416 0.92156 0.07882 0.50888 0.76592 0.96872 0.95455 0.22674 0.95638
0.56502 0.03899 0.81067 0.02416 0.92156 0.07882 0.50888 0.76592 0.96872 0.95455 0.22674 0.95638
0.56502 0.03899 0.81067 0.02416 0.92156 0.07882 0.50888 0.76592 0.96872 0.95455 0.22674 0.95638
0.56502 0.03899 0.81067 0.02416 0.92156 0.07882 0.50888 0.76592 0.96872 0.95455 0.22674 0.95638
0.56502 0.03899 0.81067 0.02416 0.92156 0.07882 0.50888 0.76592 0.96872 0.95455 0.22674 0.95638
0.56502 0.03899 0.81067 0.02416 0.92156 0.07882 0.50888 0.76592 0.96872 0.95455 0.22674 0.95638
0.56502 0.03899 0.81067 0.02416 0.92156 0.07882 0.50888 0.76592 0.96872 0.95455 0.22674 0.95638
0.56502 0.03899 0.81067 0.02416 0.92156 0.07882 0.50888 0.76592 0.96872 0.95455 0.22674 0.95638
0.56502 0.03899 0.81067 0.02416 0.92156 0.07882 0.50888 0.76592 0.96872 0.95455 0.22674 0.95638
0.56502 0.03899 0.81067 0.02416 0.92156 0.07882 0.50888 0.76592 0.96872 0.95455 0.22674 0.95638
0.56502 0.03899 0.81067 0.02416 0.92156 0.07882 0.50888 0.76592 0.96872 0.95455 0.22674 0.95638
0.56502 0.03899 0.81067 0.02416 0.92156 0.07882 0.50888 0.76592 0.96872 0.95455 0.22674 0.95638
0.56502 0.03899 0.81067 0.02416 0.92156 0.07882 0.50888 0.76592 0.96872 0.95455 0.22674 0.95638
0.56502 0.03899 0.81067 0.02416 0.92156 0.07882 0.50888 0.76592 0.96872 0.95455 0.22674 0.95638
0.56502 0.03899 0.81067 0.02416 0.92156 0.07882 0.50888 0.76592 0.96872 0.95455 0.22674 0.95638
0.56502 0.03899 0.81067 0.02416 0.92156 0.07882 0.50888 0.76592 0.96872 0.95455 0.22674 0.95638
0.56502 0.03899 0.81067 0.02416 0.92156 0.07882 0.50888 0.76592 0.96872 0.95455 0.22674 0.95638
0.56502 0.03899 0.81067 0.02416 0.92156 0.07882 0.50888 0.76592 0.96872 0.95455 0.22674 0.95638
0.56502 0.03899 0.81067 0.02416 0.92156 0.07882 0.50888 0.76592 0.96872 0.95455 0.22674 0.95638
0.56502 0.03899 0.81067 0.02416 0.92156 0.07882 0.50888 0.76592 0.96872 0.95455 0.22674 0.95638
0.56502 0.03899 0.81067 0.02416 0.92156 0.07882 0.50888 0.76592 0.96872 0.95455 0.22674 0.95638
0.56502 0.03899 0.81067 0.02416 0.92156 0.07882 0.50888 0.76592 0.96872 0.95455 0.22674 0.95638
0.56502 0.03899 0.81067 0.02416 0.92156 0.07882 0.50888 0.76592 0.96872 0.95455 0.22674 0.95638
0.56502 0.03899 0.81067 0.02416 0.92156 0.07882 0.50888 0.76592 0.96872 0.95455 0.22674 0.95638
0.56502 0.03899 0.81067 0.02416 0.92156 0.07882 0.50888 0.76592 0.96872 0.95455 0.22674 0.95638
