0.92475 0.45067 0.11375 0.84602 0.85406 0.79986 0.37210 0.05934 0.27416 0.54194 0.23458 0.11783
0.92475 0.45067 0.11375 0.84602 0.85406 0.79986 0.37210 0.05934 0.27416 0.54194 0.23458 0.11783
0.92475 0.45067 0.11375 0.84602 0.85406 0.79986 0.37210 0.05934 0.27416 0.54194 0.23458 0.11783
0.92475 0.45067 0.11375 0.84602 0.85406 0.79986 0.37210 0.05934 0.27416 0.54194 0.23458 0.11783
0.92475 0.45067 0.11375 0.84602 0.85406 0.79986 0.37210 0.05934 0.27416 0.54194 0.23458 0.11783
0.92475 0.45067 0.11375 0.84602 0.85406 0.79986 0.37210 0.05934 0.27416 0.54194 0.23458 0.11783
0.92475 0.45067 0.11375 0.84602 0.85406 0.79986 0.37210 0.05934 0.27416 0.54194 0.23458 0.11783
0.92475 0.45067 0.11375 0.84602 0.85406 0.79986 0.37210 0.05934 0.27416 0.54194 0.23458 0.11783
0.92475 0.45067 0.11375 0.84602 0.85406 0.79986 0.37210 0.05934 0.27416 0.54194 0.23458 0.11783
0.92475 0.45067 0.11375 0.84602 0.85406 0.79986 0.37210 0.05934 0.27416 0.54194 0.23458 0.11783
0.92475 0.45067 0.11375 0.84602 0.85406 0.79986 0.37210 0.05934 0.27416 0.54194 0.23458 0.11783
0.92475 0.45067 0.11375 0.84602 0.85406 0.79986 0.37210 0.05934 0.27416 0.54194 0.23458 0.11783
0.92475 0.45067 0.11375 0.84602 0.85406 0.79986 0.37210 0.05934 0.27416 0.54194 0.23458 0.11783
0.92475 0.45067 0.11375 0.84602 0.85406 0.79986 0.37210 0.05934 0.27416 0.54194 0.23458 0.11783
0.92475 0.45067 0.11375 0.84602 0.85406 0.79986 0.37210 0.05934 0.27416 0.54194 0.23458 0.11783
0.92475 0.45067 0.11375 0.84602 0.85406 0.79986 0.37210 0.05934 0.27416 0.54194 0.23458 0.11783
0.92475 0.45067 0.11375 0.84602 0.85406 0.79986 0.37210 0.05934 0.27416 0.54194 0.23458 0.11783
0.92475 0.45067 0.11375 0.84602 0.85406 0.79986 0.37210 0.05934 0.27416 0.54194 0.23458 0.11783
0.92475 0.45067 0.11375 0.84602 0.85406 0.79986 0.37210 0.05934 0.27416 0.54194 0.23458 0.11783
0.92475 0.45067 0.11375 0.84602 0.85406 0.79986 0.37210 0.05934 0.27416 0.54194 0.23458 0.11783
0.92475 0.45067 0.11375 0.84602 0.85406 0.79986 0.37210 0.05934 0.27416 0.54194 0.23458 0.11783
0.92475 0.45067 0.11375 0.84602 0.85406 0.79986 0.37210 0.05934 0.27416 0.54194 0.23458 0.11783
0.92475 0.45067 0.11375 0.84602 0.85406 0.79986 0.37210 0.05934 0.27416 0.54194 0.23458 0.11783
0.92475 0.45067 0.11375 0.84602 0.85406 0.79986 0.37210 0.05934 0.27416 0.54194 0.23458 0.11783
0.92475 0.45067 0.11375 0.84602 0.85406 0.79986 0.37210 0.05934 0.27416 0.54194 0.23458 0.11783
0.92475 0.45067 0.11375 0.84602 0.85406 0.79986 0.37210 0.05934 0.27416 0.54194 0.23458 0.11783
0.92475 0.45067 0.11375 0.84602 0.85406 0.79986 0.37210 0.05934 0.27416 0.54194 0.23458 0.11783
0.92475 0.45067 0.11375 0.84602 0.85406 0.79986 0.37210 0.05934 0.27416 0.54194 0.23458 0.11783
0.92475 0.45067 0.11375 0.84602 0.85406 0.79986 0.37210 0.05934 0.27416 0.54194 0.23458 0.11783
0.92475 0.45067 0.11375 0.84602 0.85406 0.79986 0.37210 0.05934 0.27416 0.54194 0.23458 0.11783
