0.20965 0.62646 0.51069 0.20780 0.98829 0.36090 0.65246 0.47198 0.16637 0.87549 0.21881 0.79784
0.20965 0.62646 0.51069 0.20780 0.98829 0.36090 0.65246 0.47198 0.16637 0.87549 0.21881 0.79784
0.20965 0.62646 0.51069 0.20780 0.98829 0.36090 0.65246 0.47198 0.16637 0.87549 0.21881 0.79784
0.20965 0.62646 0.51069 0.20780 0.98829 0.36090 0.65246 0.47198 0.16637 0.87549 0.21881 0.79784
0.20965 0.62646 0.51069 0.20780 0.98829 0.36090 0.65246 0.47198 0.16637 0.87549 0.21881 0.79784
0.20965 0.62646 0.51069 0.20780 0.98829 0.36090 0.65246 0.47198 0.16637 0.87549 0.21881 0.79784
0.20965 0.62646 0.51069 0.20780 0.98829 0.36090 0.65246 0.47198 0.16637 0.87549 0.21881 0.79784
0.20965 0.62646 0.51069 0.20780 0.98829 0.36090 0.65246 0.47198 0.16637 0.87549 0.21881 0.79784
0.20965 0.62646 0.51069 0.20780 0.98829 0.36090 0.65246 0.47198 0.16637 0.87549 0.21881 0.79784
0.20965 0.62646 0.51069 0.20780 0.98829 0.36090 0.65246 0.47198 0.16637 0.87549 0.21881 0.79784
0.20965 0.62646 0.51069 0.20780 0.98829 0.36090 0.65246 0.47198 0.16637 0.87549 0.21881 0.79784
0.20965 0.62646 0.51069 0.20780 0.98829 0.36090 0.65246 0.47198 0.16637 0.87549 0.21881 0.79784
0.20965 0.62646 0.51069 0.20780 0.98829 0.36090 0.65246 0.47198 0.16637 0.87549 0.21881 0.79784
0.20965 0.62646 0.51069 0.20780 0.98829 0.36090 0.65246 0.47198 0.16637 0.87549 0.21881 0.79784
0.20965 0.62646 0.51069 0.20780 0.98829 0.36090 0.65246 0.47198 0.16637 0.87549 0.21881 0.79784
0.20965 0.62646 0.51069 0.20780 0.98829 0.36090 0.65246 0.47198 0.16637 0.87549 0.21881 0.79784
0.20965 0.62646 0.51069 0.20780 0.98829 0.36090 0.65246 0.47198 0.16637 0.87549 0.21881 0.79784
0.20965 0.62646 0.51069 0.20780 0.98829 0.36090 0.65246 0.47198 0.16637 0.87549 0.21881 0.79784
0.20965 0.62646 0.51069 0.20780 0.98829 0.36090 0.65246 0.47198 0.16637 0.87549 0.21881 0.79784
0.20965 0.62646 0.51069 0.20780 0.98829 0.36090 0.65246 0.47198 0.16637 0.87549 0.21881 0.79784
0.20965 0.62646 0.51069 0.20780 0.98829 0.36090 0.65246 0.47198 0.16637 0.87549 0.21881 0.79784
0.20965 0.62646 0.51069 0.20780 0.98829 0.36090 0.65246 0.47198 0.16637 0.87549 0.21881 0.79784
0.20965 0.62646 0.51069 0.20780 0.98829 0.36090 0.65246 0.47198 0.16637 0.87549 0.21881 0.79784
0.20965 0.62646 0.51069 0.20780 0.98829 0.36090 0.65246 0.47198 0.16637 0.87549 0.21881 0.79784
0.20965 0.62646 0.51069 0.20780 0.98829 0.36090 0.65246 0.47198 0.16637 0.87549 0.21881 0.79784
0.20965 0.62646 0.51069 0.20780 0.98829 0.36090 0.65246 0.47198 0.16637 0.87549 0.21881 0.79784
0.20965 0.62646 0.51069 0.20780 0.98829 0.36090 0.65246 0.47198 0.16637 0.87549 0.21881 0.79784
0.20965 0.62646 0.51069 0.20780 0.98829 0.36090 0.65246 0.47198 0.16637 0.87549 0.21881 0.79784
0.20965 0.62646 0.51069 0.20780 0.98829 0.36090 0.65246 0.47198 0.16637 0.87549 0.21881 0.79784
0.20965 0.62646 0.51069 0.20780 0.98829 0.36090 0.65246 0.47198 0.16637 0.87549 0.21881 0.79784
