0.96749 0.72792 0.50309 0.37316 0.49641 0.57074 0.20711 0.04333 0.93985 0.93086 0.49098 0.48246
0.96749 0.72792 0.50309 0.37316 0.49641 0.57074 0.20711 0.04333 0.93985 0.93086 0.49098 0.48246
0.96749 0.72792 0.50309 0.37316 0.49641 0.57074 0.20711 0.04333 0.93985 0.93086 0.49098 0.48246
0.96749 0.72792 0.50309 0.37316 0.49641 0.57074 0.20711 0.04333 0.93985 0.93086 0.49098 0.48246
0.96749 0.72792 0.50309 0.37316 0.49641 0.57074 0.20711 0.04333 0.93985 0.93086 0.49098 0.48246
0.96749 0.72792 0.50309 0.37316 0.49641 0.57074 0.20711 0.04333 0.93985 0.93086 0.49098 0.48246
0.96749 0.72792 0.50309 0.37316 0.49641 0.57074 0.20711 0.04333 0.93985 0.93086 0.49098 0.48246
0.96749 0.72792 0.50309 0.37316 0.49641 0.57074 0.20711 0.04333 0.93985 0.93086 0.49098 0.48246
0.96749 0.72792 0.50309 0.37316 0.49641 0.57074 0.20711 0.04333 0.93985 0.93086 0.49098 0.48246
0.96749 0.72792 0.50309 0.37316 0.49641 0.57074 0.20711 0.04333 0.93985 0.93086 0.49098 0.48246
0.96749 0.72792 0.50309 0.37316 0.49641 0.57074 0.20711 0.04333 0.93985 0.93086 0.49098 0.48246
0.96749 0.72792 0.50309 0.37316 0.49641 0.57074 0.20711 0.04333 0.93985 0.93086 0.49098 0.48246
0.96749 0.72792 0.50309 0.37316 0.49641 0.57074 0.20711 0.04333 0.93985 0.93086 0.49098 0.48246
0.96749 0.72792 0.50309 0.37316 0.49641 0.57074 0.20711 0.04333 0.93985 0.93086 0.49098 0.48246
0.96749 0.72792 0.50309 0.37316 0.49641 0.57074 0.20711 0.04333 0.93985 0.93086 0.49098 0.48246
0.96749 0.72792 0.50309 0.37316 0.49641 0.57074 0.20711 0.04333 0.93985 0.93086 0.49098 0.48246
0.96749 0.72792 0.50309 0.37316 0.49641 0.57074 0.20711 0.04333 0.93985 0.93086 0.49098 0.48246
0.96749 0.72792 0.50309 0.37316 0.49641 0.57074 0.20711 0.04333 0.93985 0.93086 0.49098 0.48246
0.96749 0.72792 0.50309 0.37316 0.49641 0.57074 0.20711 0.04333 0.93985 0.93086 0.49098 0.48246
0.96749 0.72792 0.50309 0.37316 0.49641 0.57074 0.20711 0.04333 0.93985 0.93086 0.49098 0.48246
0.96749 0.72792 0.50309 0.37316 0.49641 0.57074 0.20711 0.04333 0.93985 0.93086 0.49098 0.48246
0.96749 0.72792 0.50309 0.37316 0.49641 0.57074 0.20711 0.04333 0.93985 0.93086 0.49098 0.48246
0.96749 0.72792 0.50309 0.37316 0.49641 0.57074 0.20711 0.04333 0.93985 0.93086 0.49098 0.48246
0.96749 0.72792 0.50309 0.37316 0.49641 0.57074 0.20711 0.04333 0.93985 0.93086 0.49098 0.48246
0.96749 0.72792 0.50309 0.37316 0.49641 0.57074 0.20711 0.04333 0.93985 0.93086 0.49098 0.48246
0.96749 0.72792 0.50309 0.37316 0.49641 0.57074 0.20711 0.04333 0.93985 0.93086 0.49098 0.48246
0.96749 0.72792 0.50309 0.37316 0.49641 0.57074 0.20711 0.04333 0.93985 0.93086 0.49098 0.48246
0.96749 0.72792 0.50309 0.37316 0.49641 0.57074 0.20711 0.04333 0.93985 0.93086 0.49098 0.48246
0.96749 0.72792 0.50309 0.37316 0.49641 0.57074 0.20711 0.04333 0.93985 0.93086 0.49098 0.48246
0.96749 0.72792 0.50309 0.37316 0.49641 0.57074 0.20711 0.04333 0.93985 0.93086 0.49098 0.48246
