0.96749 0.72792 0.50309 0.37316 0.49641 0.57074 0.20711 0.04333 0.93985 0.93086 0.49098 0.48246
0.28371 0.36343 0.91733 0.66692 0.78771 0.02169 0.73419 0.85393 0.58070 0.62800 0.74358 0.78082
0.18429 0.23376 0.80946 0.18927 0.91241 0.96770 0.72882 0.97452 0.07439 0.17342 0.08422 0.10481
0.83628 0.71364 0.62700 0.61197 0.51831 0.29459 0.39738 0.24676 0.40964 0.68437 0.64359 0.57894
0.98163 0.68872 0.44039 0.02687 0.61819 0.11668 0.55684 0.01148 0.73930 0.68471 0.69358 0.54649
0.99641 0.58469 0.06216 0.27477 0.66200 0.16618 0.09227 0.58371 0.38214 0.78700 0.76869 0.18501
*  FROM FILE 60/AB39.txt, 3:4 BEGIN *
0.99641 0.58469 0.06216 0.27477 0.66200 0.16618 0.09227 0.58371 0.38214 0.78700 0.76869 0.18501
0.99641 0.58469 0.06216 0.27477 0.66200 0.16618 0.09227 0.58371 0.38214 0.78700 0.76869 0.18501
*  FROM FILE 60/AB39.txt, 3:4 END   *
*  FROM FILE 60/AB39.txt, 5:6 BEGIN *
0.99641 0.58469 0.06216 0.27477 0.66200 0.16618 0.09227 0.58371 0.38214 0.78700 0.76869 0.18501
0.99641 0.58469 0.06216 0.27477 0.66200 0.16618 0.09227 0.58371 0.38214 0.78700 0.76869 0.18501
*  FROM FILE 60/AB39.txt, 5:6 END   *
0.78603 0.14896 0.57678 0.87283 0.33051 0.77199 0.89474 0.55651 0.41162 0.20765 0.81290 0.49684
*  FROM FILE 90/AB39.txt, 3:4 BEGIN *
0.78603 0.14896 0.57678 0.87283 0.33051 0.77199 0.89474 0.55651 0.41162 0.20765 0.81290 0.49684
0.78603 0.14896 0.57678 0.87283 0.33051 0.77199 0.89474 0.55651 0.41162 0.20765 0.81290 0.49684
*  FROM FILE 90/AB39.txt, 3:4 END   *
