0.11217 0.31608 0.70098 0.05660 0.06411 0.35041 0.85017 0.75067 0.13482 0.85083 0.48469 0.82102
0.20965 0.62646 0.51069 0.20780 0.98829 0.36090 0.65246 0.47198 0.16637 0.87549 0.21881 0.79784
0.96793 0.40771 0.70467 0.04957 0.54447 0.52662 0.50742 0.88461 0.96403 0.00487 0.06548 0.28169
0.11627 0.88494 0.01710 0.96771 0.64726 0.34758 0.67035 0.15317 0.79242 0.50887 0.12043 0.24791
0.27036 0.86701 0.33954 0.89315 0.25559 0.18023 0.84247 0.42813 0.13441 0.02441 0.68285 0.72987
0.27843 0.25822 0.45622 0.13308 0.79349 0.22386 0.86847 0.49302 0.27043 0.61558 0.74887 0.86044
*  FROM FILE 60/AB6.txt, 3:4 BEGIN *
0.27843 0.25822 0.45622 0.13308 0.79349 0.22386 0.86847 0.49302 0.27043 0.61558 0.74887 0.86044
0.27843 0.25822 0.45622 0.13308 0.79349 0.22386 0.86847 0.49302 0.27043 0.61558 0.74887 0.86044
*  FROM FILE 60/AB6.txt, 3:4 END   *
*  FROM FILE 60/AB6.txt, 5:6 BEGIN *
0.27843 0.25822 0.45622 0.13308 0.79349 0.22386 0.86847 0.49302 0.27043 0.61558 0.74887 0.86044
0.27843 0.25822 0.45622 0.13308 0.79349 0.22386 0.86847 0.49302 0.27043 0.61558 0.74887 0.86044
*  FROM FILE 60/AB6.txt, 5:6 END   *
0.43085 0.23883 0.27570 0.05639 0.90016 0.55304 0.03791 0.76606 0.10839 0.12774 0.80906 0.83772
*  FROM FILE 90/AB6.txt, 3:4 BEGIN *
0.43085 0.23883 0.27570 0.05639 0.90016 0.55304 0.03791 0.76606 0.10839 0.12774 0.80906 0.83772
0.43085 0.23883 0.27570 0.05639 0.90016 0.55304 0.03791 0.76606 0.10839 0.12774 0.80906 0.83772
*  FROM FILE 90/AB6.txt, 3:4 END   *
