0.62686 0.77739 0.14135 0.71119 0.68632 0.39994 0.20122 0.71916 0.43843 0.60659 0.68751 0.88980
0.62686 0.77739 0.14135 0.71119 0.68632 0.39994 0.20122 0.71916 0.43843 0.60659 0.68751 0.88980
0.62686 0.77739 0.14135 0.71119 0.68632 0.39994 0.20122 0.71916 0.43843 0.60659 0.68751 0.88980
0.62686 0.77739 0.14135 0.71119 0.68632 0.39994 0.20122 0.71916 0.43843 0.60659 0.68751 0.88980
0.62686 0.77739 0.14135 0.71119 0.68632 0.39994 0.20122 0.71916 0.43843 0.60659 0.68751 0.88980
0.62686 0.77739 0.14135 0.71119 0.68632 0.39994 0.20122 0.71916 0.43843 0.60659 0.68751 0.88980
0.62686 0.77739 0.14135 0.71119 0.68632 0.39994 0.20122 0.71916 0.43843 0.60659 0.68751 0.88980
0.62686 0.77739 0.14135 0.71119 0.68632 0.39994 0.20122 0.71916 0.43843 0.60659 0.68751 0.88980
0.62686 0.77739 0.14135 0.71119 0.68632 0.39994 0.20122 0.71916 0.43843 0.60659 0.68751 0.88980
0.62686 0.77739 0.14135 0.71119 0.68632 0.39994 0.20122 0.71916 0.43843 0.60659 0.68751 0.88980
0.62686 0.77739 0.14135 0.71119 0.68632 0.39994 0.20122 0.71916 0.43843 0.60659 0.68751 0.88980
0.62686 0.77739 0.14135 0.71119 0.68632 0.39994 0.20122 0.71916 0.43843 0.60659 0.68751 0.88980
0.62686 0.77739 0.14135 0.71119 0.68632 0.39994 0.20122 0.71916 0.43843 0.60659 0.68751 0.88980
0.62686 0.77739 0.14135 0.71119 0.68632 0.39994 0.20122 0.71916 0.43843 0.60659 0.68751 0.88980
0.62686 0.77739 0.14135 0.71119 0.68632 0.39994 0.20122 0.71916 0.43843 0.60659 0.68751 0.88980
0.62686 0.77739 0.14135 0.71119 0.68632 0.39994 0.20122 0.71916 0.43843 0.60659 0.68751 0.88980
0.62686 0.77739 0.14135 0.71119 0.68632 0.39994 0.20122 0.71916 0.43843 0.60659 0.68751 0.88980
0.62686 0.77739 0.14135 0.71119 0.68632 0.39994 0.20122 0.71916 0.43843 0.60659 0.68751 0.88980
0.62686 0.77739 0.14135 0.71119 0.68632 0.39994 0.20122 0.71916 0.43843 0.60659 0.68751 0.88980
0.62686 0.77739 0.14135 0.71119 0.68632 0.39994 0.20122 0.71916 0.43843 0.60659 0.68751 0.88980
0.62686 0.77739 0.14135 0.71119 0.68632 0.39994 0.20122 0.71916 0.43843 0.60659 0.68751 0.88980
0.62686 0.77739 0.14135 0.71119 0.68632 0.39994 0.20122 0.71916 0.43843 0.60659 0.68751 0.88980
0.62686 0.77739 0.14135 0.71119 0.68632 0.39994 0.20122 0.71916 0.43843 0.60659 0.68751 0.88980
0.62686 0.77739 0.14135 0.71119 0.68632 0.39994 0.20122 0.71916 0.43843 0.60659 0.68751 0.88980
0.62686 0.77739 0.14135 0.71119 0.68632 0.39994 0.20122 0.71916 0.43843 0.60659 0.68751 0.88980
0.62686 0.77739 0.14135 0.71119 0.68632 0.39994 0.20122 0.71916 0.43843 0.60659 0.68751 0.88980
0.62686 0.77739 0.14135 0.71119 0.68632 0.39994 0.20122 0.71916 0.43843 0.60659 0.68751 0.88980
0.62686 0.77739 0.14135 0.71119 0.68632 0.39994 0.20122 0.71916 0.43843 0.60659 0.68751 0.88980
0.62686 0.77739 0.14135 0.71119 0.68632 0.39994 0.20122 0.71916 0.43843 0.60659 0.68751 0.88980
0.62686 0.77739 0.14135 0.71119 0.68632 0.39994 0.20122 0.71916 0.43843 0.60659 0.68751 0.88980
