0.27036 0.86701 0.33954 0.89315 0.25559 0.18023 0.84247 0.42813 0.13441 0.02441 0.68285 0.72987
0.27036 0.86701 0.33954 0.89315 0.25559 0.18023 0.84247 0.42813 0.13441 0.02441 0.68285 0.72987
0.27036 0.86701 0.33954 0.89315 0.25559 0.18023 0.84247 0.42813 0.13441 0.02441 0.68285 0.72987
0.27036 0.86701 0.33954 0.89315 0.25559 0.18023 0.84247 0.42813 0.13441 0.02441 0.68285 0.72987
0.27036 0.86701 0.33954 0.89315 0.25559 0.18023 0.84247 0.42813 0.13441 0.02441 0.68285 0.72987
0.27036 0.86701 0.33954 0.89315 0.25559 0.18023 0.84247 0.42813 0.13441 0.02441 0.68285 0.72987
0.27036 0.86701 0.33954 0.89315 0.25559 0.18023 0.84247 0.42813 0.13441 0.02441 0.68285 0.72987
0.27036 0.86701 0.33954 0.89315 0.25559 0.18023 0.84247 0.42813 0.13441 0.02441 0.68285 0.72987
0.27036 0.86701 0.33954 0.89315 0.25559 0.18023 0.84247 0.42813 0.13441 0.02441 0.68285 0.72987
0.27036 0.86701 0.33954 0.89315 0.25559 0.18023 0.84247 0.42813 0.13441 0.02441 0.68285 0.72987
0.27036 0.86701 0.33954 0.89315 0.25559 0.18023 0.84247 0.42813 0.13441 0.02441 0.68285 0.72987
0.27036 0.86701 0.33954 0.89315 0.25559 0.18023 0.84247 0.42813 0.13441 0.02441 0.68285 0.72987
0.27036 0.86701 0.33954 0.89315 0.25559 0.18023 0.84247 0.42813 0.13441 0.02441 0.68285 0.72987
0.27036 0.86701 0.33954 0.89315 0.25559 0.18023 0.84247 0.42813 0.13441 0.02441 0.68285 0.72987
0.27036 0.86701 0.33954 0.89315 0.25559 0.18023 0.84247 0.42813 0.13441 0.02441 0.68285 0.72987
0.27036 0.86701 0.33954 0.89315 0.25559 0.18023 0.84247 0.42813 0.13441 0.02441 0.68285 0.72987
0.27036 0.86701 0.33954 0.89315 0.25559 0.18023 0.84247 0.42813 0.13441 0.02441 0.68285 0.72987
0.27036 0.86701 0.33954 0.89315 0.25559 0.18023 0.84247 0.42813 0.13441 0.02441 0.68285 0.72987
0.27036 0.86701 0.33954 0.89315 0.25559 0.18023 0.84247 0.42813 0.13441 0.02441 0.68285 0.72987
0.27036 0.86701 0.33954 0.89315 0.25559 0.18023 0.84247 0.42813 0.13441 0.02441 0.68285 0.72987
0.27036 0.86701 0.33954 0.89315 0.25559 0.18023 0.84247 0.42813 0.13441 0.02441 0.68285 0.72987
0.27036 0.86701 0.33954 0.89315 0.25559 0.18023 0.84247 0.42813 0.13441 0.02441 0.68285 0.72987
0.27036 0.86701 0.33954 0.89315 0.25559 0.18023 0.84247 0.42813 0.13441 0.02441 0.68285 0.72987
0.27036 0.86701 0.33954 0.89315 0.25559 0.18023 0.84247 0.42813 0.13441 0.02441 0.68285 0.72987
0.27036 0.86701 0.33954 0.89315 0.25559 0.18023 0.84247 0.42813 0.13441 0.02441 0.68285 0.72987
0.27036 0.86701 0.33954 0.89315 0.25559 0.18023 0.84247 0.42813 0.13441 0.02441 0.68285 0.72987
0.27036 0.86701 0.33954 0.89315 0.25559 0.18023 0.84247 0.42813 0.13441 0.02441 0.68285 0.72987
0.27036 0.86701 0.33954 0.89315 0.25559 0.18023 0.84247 0.42813 0.13441 0.02441 0.68285 0.72987
0.27036 0.86701 0.33954 0.89315 0.25559 0.18023 0.84247 0.42813 0.13441 0.02441 0.68285 0.72987
0.27036 0.86701 0.33954 0.89315 0.25559 0.18023 0.84247 0.42813 0.13441 0.02441 0.68285 0.72987
