0.98163 0.68872 0.44039 0.02687 0.61819 0.11668 0.55684 0.01148 0.73930 0.68471 0.69358 0.54649
0.98163 0.68872 0.44039 0.02687 0.61819 0.11668 0.55684 0.01148 0.73930 0.68471 0.69358 0.54649
0.98163 0.68872 0.44039 0.02687 0.61819 0.11668 0.55684 0.01148 0.73930 0.68471 0.69358 0.54649
0.98163 0.68872 0.44039 0.02687 0.61819 0.11668 0.55684 0.01148 0.73930 0.68471 0.69358 0.54649
0.98163 0.68872 0.44039 0.02687 0.61819 0.11668 0.55684 0.01148 0.73930 0.68471 0.69358 0.54649
0.98163 0.68872 0.44039 0.02687 0.61819 0.11668 0.55684 0.01148 0.73930 0.68471 0.69358 0.54649
0.98163 0.68872 0.44039 0.02687 0.61819 0.11668 0.55684 0.01148 0.73930 0.68471 0.69358 0.54649
0.98163 0.68872 0.44039 0.02687 0.61819 0.11668 0.55684 0.01148 0.73930 0.68471 0.69358 0.54649
0.98163 0.68872 0.44039 0.02687 0.61819 0.11668 0.55684 0.01148 0.73930 0.68471 0.69358 0.54649
0.98163 0.68872 0.44039 0.02687 0.61819 0.11668 0.55684 0.01148 0.73930 0.68471 0.69358 0.54649
0.98163 0.68872 0.44039 0.02687 0.61819 0.11668 0.55684 0.01148 0.73930 0.68471 0.69358 0.54649
0.98163 0.68872 0.44039 0.02687 0.61819 0.11668 0.55684 0.01148 0.73930 0.68471 0.69358 0.54649
0.98163 0.68872 0.44039 0.02687 0.61819 0.11668 0.55684 0.01148 0.73930 0.68471 0.69358 0.54649
0.98163 0.68872 0.44039 0.02687 0.61819 0.11668 0.55684 0.01148 0.73930 0.68471 0.69358 0.54649
0.98163 0.68872 0.44039 0.02687 0.61819 0.11668 0.55684 0.01148 0.73930 0.68471 0.69358 0.54649
0.98163 0.68872 0.44039 0.02687 0.61819 0.11668 0.55684 0.01148 0.73930 0.68471 0.69358 0.54649
0.98163 0.68872 0.44039 0.02687 0.61819 0.11668 0.55684 0.01148 0.73930 0.68471 0.69358 0.54649
0.98163 0.68872 0.44039 0.02687 0.61819 0.11668 0.55684 0.01148 0.73930 0.68471 0.69358 0.54649
0.98163 0.68872 0.44039 0.02687 0.61819 0.11668 0.55684 0.01148 0.73930 0.68471 0.69358 0.54649
0.98163 0.68872 0.44039 0.02687 0.61819 0.11668 0.55684 0.01148 0.73930 0.68471 0.69358 0.54649
0.98163 0.68872 0.44039 0.02687 0.61819 0.11668 0.55684 0.01148 0.73930 0.68471 0.69358 0.54649
0.98163 0.68872 0.44039 0.02687 0.61819 0.11668 0.55684 0.01148 0.73930 0.68471 0.69358 0.54649
0.98163 0.68872 0.44039 0.02687 0.61819 0.11668 0.55684 0.01148 0.73930 0.68471 0.69358 0.54649
0.98163 0.68872 0.44039 0.02687 0.61819 0.11668 0.55684 0.01148 0.73930 0.68471 0.69358 0.54649
0.98163 0.68872 0.44039 0.02687 0.61819 0.11668 0.55684 0.01148 0.73930 0.68471 0.69358 0.54649
0.98163 0.68872 0.44039 0.02687 0.61819 0.11668 0.55684 0.01148 0.73930 0.68471 0.69358 0.54649
0.98163 0.68872 0.44039 0.02687 0.61819 0.11668 0.55684 0.01148 0.73930 0.68471 0.69358 0.54649
0.98163 0.68872 0.44039 0.02687 0.61819 0.11668 0.55684 0.01148 0.73930 0.68471 0.69358 0.54649
0.98163 0.68872 0.44039 0.02687 0.61819 0.11668 0.55684 0.01148 0.73930 0.68471 0.69358 0.54649
0.98163 0.68872 0.44039 0.02687 0.61819 0.11668 0.55684 0.01148 0.73930 0.68471 0.69358 0.54649
